%YAML 1.1
%TAG !u! tag:unity3d.com,2011:
--- !u!114 &11400000
MonoBehaviour:
  m_ObjectHideFlags: 0
  m_CorrespondingSourceObject: {fileID: 0}
  m_PrefabInstance: {fileID: 0}
  m_PrefabAsset: {fileID: 0}
  m_GameObject: {fileID: 0}
  m_Enabled: 1
  m_EditorHideFlags: 0
  m_Script: {fileID: 11500000, guid: 00e10d0f9f59a9a43ac134d3ecfd7efb, type: 3}
  m_Name: Shanker
  m_EditorClassIdentifier: 
  type: Shanker
  melee: 1
  maxRange: 0
  fireRate: 0
